{
	"info": {
		"_postman_id": "79fdfa38-608d-4687-bb0a-ded7e34063ef",
		"name": "iTunes API",
		"schema": "https://schema.getpostman.com/json/collection/v2.1.0/collection.json"
	},
	"item": [
		{
			"name": "getArtistMVDetails",
			"request": {
				"method": "GET",
				"header": [],
				"url": {
					"raw": "http://localhost:8081/getArtistMVDetails",
					"protocol": "http",
					"host": [
						"localhost"
					],
					"port": "8081",
					"path": [
						"getArtistMVDetails"
					]
				},
				"description": "http://localhost:8081/getArtistMVDetails"
			},
			"response": []
		}
	]
}